%YAML 1.1
%TAG !u! tag:unity3d.com,2011:
--- !u!1045 &1
EditorBuildSettings:
  m_ObjectHideFlags: 0
  serializedVersion: 2
  m_Scenes:
  - enabled: 1
    path: Assets/Scenes/Menu.unity
    guid: ccd9c6558c1931c4885fcc008d3a3c23
  - enabled: 0
    path: Assets/Scenes/Map Finale.unity
    guid: f7bbfe197e8a4dc4abbf45c76f590834
  - enabled: 1
    path: Assets/Scenes/Map Angel.unity
    guid: 75091e9b72e35bb4abaa6e18036b586a
  m_configObjects: {}
