%YAML 1.1
%TAG !u! tag:unity3d.com,2011:
--- !u!74 &7400000
AnimationClip:
  m_ObjectHideFlags: 0
  m_CorrespondingSourceObject: {fileID: 0}
  m_PrefabInstance: {fileID: 0}
  m_PrefabAsset: {fileID: 0}
  m_Name: WalkAim
  serializedVersion: 6
  m_Legacy: 0
  m_Compressed: 0
  m_UseHighQualityCurve: 1
  m_RotationCurves: []
  m_CompressedRotationCurves: []
  m_EulerCurves: []
  m_PositionCurves: []
  m_ScaleCurves: []
  m_FloatCurves: []
  m_PPtrCurves:
  - curve:
    - time: 0
      value: {fileID: 21300000, guid: 70503d71a0abb4818823e52b03def6e7, type: 3}
    - time: 0.15
      value: {fileID: 21300000, guid: f143b7e32458a4ac3b29c519ff920e70, type: 3}
    - time: 0.3
      value: {fileID: 21300000, guid: 9fb83bc13a73444cd84409f9632bf64b, type: 3}
    - time: 0.43333334
      value: {fileID: 21300000, guid: c7d83ea6e359a4ee9943372cba4542d0, type: 3}
    - time: 0.5833333
      value: {fileID: 21300000, guid: aabc1c19f969648f1b7f276f8fbe99c8, type: 3}
    - time: 0.75
      value: {fileID: 21300000, guid: a56bbfeb88ec440b5bc29a32f5368038, type: 3}
    - time: 0.9
      value: {fileID: 21300000, guid: 10600c70f060b46808cda88dd6de6104, type: 3}
    - time: 1.0333333
      value: {fileID: 21300000, guid: 10600c70f060b46808cda88dd6de6104, type: 3}
    - time: 1.1833333
      value: {fileID: 21300000, guid: ca4274691df674ee4a7c71fcc3d229d1, type: 3}
    - time: 1.3333334
      value: {fileID: 21300000, guid: 03e330e14a37e164999a9beadcf20ec1, type: 3}
    attribute: m_Sprite
    path: 
    classID: 212
    script: {fileID: 0}
  m_SampleRate: 60
  m_WrapMode: 0
  m_Bounds:
    m_Center: {x: 0, y: 0, z: 0}
    m_Extent: {x: 0, y: 0, z: 0}
  m_ClipBindingConstant:
    genericBindings:
    - serializedVersion: 2
      path: 0
      attribute: 0
      script: {fileID: 0}
      typeID: 212
      customType: 23
      isPPtrCurve: 1
    pptrCurveMapping:
    - {fileID: 21300000, guid: 70503d71a0abb4818823e52b03def6e7, type: 3}
    - {fileID: 21300000, guid: f143b7e32458a4ac3b29c519ff920e70, type: 3}
    - {fileID: 21300000, guid: 9fb83bc13a73444cd84409f9632bf64b, type: 3}
    - {fileID: 21300000, guid: c7d83ea6e359a4ee9943372cba4542d0, type: 3}
    - {fileID: 21300000, guid: aabc1c19f969648f1b7f276f8fbe99c8, type: 3}
    - {fileID: 21300000, guid: a56bbfeb88ec440b5bc29a32f5368038, type: 3}
    - {fileID: 21300000, guid: 10600c70f060b46808cda88dd6de6104, type: 3}
    - {fileID: 21300000, guid: 10600c70f060b46808cda88dd6de6104, type: 3}
    - {fileID: 21300000, guid: ca4274691df674ee4a7c71fcc3d229d1, type: 3}
    - {fileID: 21300000, guid: 03e330e14a37e164999a9beadcf20ec1, type: 3}
  m_AnimationClipSettings:
    serializedVersion: 2
    m_AdditiveReferencePoseClip: {fileID: 0}
    m_AdditiveReferencePoseTime: 0
    m_StartTime: 0
    m_StopTime: 1.35
    m_OrientationOffsetY: 0
    m_Level: 0
    m_CycleOffset: 0
    m_HasAdditiveReferencePose: 0
    m_LoopTime: 1
    m_LoopBlend: 0
    m_LoopBlendOrientation: 0
    m_LoopBlendPositionY: 0
    m_LoopBlendPositionXZ: 0
    m_KeepOriginalOrientation: 0
    m_KeepOriginalPositionY: 1
    m_KeepOriginalPositionXZ: 0
    m_HeightFromFeet: 0
    m_Mirror: 0
  m_EditorCurves: []
  m_EulerEditorCurves: []
  m_HasGenericRootTransform: 0
  m_HasMotionFloatCurves: 0
  m_Events: []
